ClubDelCódigo - Sexta Reunión
…
Ordenando un poco…

# A tibble: 348 × 8
   valencia_media_general valenc…¹ arous…² arous…³ domin…⁴ domin…⁵ pais_…⁶ pais 
                    <dbl>    <dbl>   <dbl>   <dbl>   <dbl>   <dbl> <fct>   <chr>
 1                   4.22     2.01    6.22    2.25    4.04    2.35 esp     esp  
 2                   3.86     2.1     7.01  215       3.53    2.44 esp     esp  
 3                   3.54     2.01    6.94    2.2     3.83    2.73 esp     esp  
 4                   3.93     2       6.35    2.1     3.69    2.21 esp     esp  
 5                   3.89     1.89    6.42    2.32    4.04    2.4  esp     esp  
 6                   4.02     1.89    6.6     2.15    4.42    2.56 esp     esp  
 7                   4.37     1.79    5.76    2.15    4.58    2.17 esp     esp  
 8                   3.97     1.81    5.89    2.2     4.47    2.35 esp     esp  
 9                   6.72     1.71    3.51    2.23    5.5     1.8  esp     esp  
10                   6.59     1.81    4.06    2.3     5.6     1.89 esp     esp  
# … with 338 more rows, and abbreviated variable names ¹​valencia_DE_general,
#   ²​arousal_media_general, ³​arousal_DE_general, ⁴​dominancia_media_general,
#   ⁵​dominancia_DE_general, ⁶​pais_factor
…
