ClubDelCódigo - Tercera Reunion
…
Ver/Ocultar código
funcion(datos, lo que necesitamos)

Pseudocodigo con un objetivo más claro

Ver/Ocultar código
filtrar(datos, variable mayor que 1)

Codigo para alcanzar el objetivo

Ver/Ocultar código
filter(.data = starwars, height > 175) # En este caso solo necesito aquellos datos de quienes tengan una altura mayor a 175 cm

# A tibble: 48 × 14
   name     height  mass hair_color skin_color eye_color birth_year sex   gender
   <chr>     <int> <dbl> <chr>      <chr>      <chr>          <dbl> <chr> <chr> 
 1 Darth V…    202 136   none       white      yellow          41.9 male  mascu…
 2 Owen La…    178 120   brown, gr… light      blue            52   male  mascu…
 3 Biggs D…    183  84   black      light      brown           24   male  mascu…
 4 Obi-Wan…    182  77   auburn, w… fair       blue-gray       57   male  mascu…
 5 Anakin …    188  84   blond      fair       blue            41.9 male  mascu…
 6 Wilhuff…    180  NA   auburn, g… fair       blue            64   male  mascu…
 7 Chewbac…    228 112   brown      unknown    blue           200   male  mascu…
 8 Han Solo    180  80   brown      fair       brown           29   male  mascu…
 9 Jek Ton…    180 110   brown      fair       blue            NA   male  mascu…
10 Boba Fe…    183  78.2 black      fair       brown           31.5 male  mascu…
# … with 38 more rows, and 5 more variables: homeworld <chr>, species <chr>,
#   films <list>, vehicles <list>, starships <list>
…
Seleccionar

Pseudocodigo

Ver/Ocultar código
seleccionar(datos, variable(s) de interes)

Código

Ver/Ocultar código
select(.data = starwars, c(name, height, mass, gender)) # En este caso solo me interesaban las variables nombre, altura, masa y genero

# A tibble: 87 × 4
   name               height  mass gender   
   <chr>               <int> <dbl> <chr>    
 1 Luke Skywalker        172    77 masculine
 2 C-3PO                 167    75 masculine
 3 R2-D2                  96    32 masculine
 4 Darth Vader           202   136 masculine
 5 Leia Organa           150    49 feminine 
 6 Owen Lars             178   120 masculine
 7 Beru Whitesun lars    165    75 feminine 
 8 R5-D4                  97    32 masculine
 9 Biggs Darklighter     183    84 masculine
10 Obi-Wan Kenobi        182    77 masculine
# … with 77 more rows

Ver/Ocultar código
seleccion1 <- select(.data = starwars, c(name, height, mass, gender))

select(.data = seleccion1, -height) # En este caso se puede usar el select para quitar una variable. Eso se hace usando un - antes de la variable que queremos quitar.

# A tibble: 87 × 3
   name                mass gender   
   <chr>              <dbl> <chr>    
 1 Luke Skywalker        77 masculine
 2 C-3PO                 75 masculine
 3 R2-D2                 32 masculine
 4 Darth Vader          136 masculine
 5 Leia Organa           49 feminine 
 6 Owen Lars            120 masculine
 7 Beru Whitesun lars    75 feminine 
 8 R5-D4                 32 masculine
 9 Biggs Darklighter     84 masculine
10 Obi-Wan Kenobi        77 masculine
# … with 77 more rows

Ver/Ocultar código
select(.data = starwars, starts_with("h"))

# A tibble: 87 × 3
   height hair_color    homeworld
    <int> <chr>         <chr>    
 1    172 blond         Tatooine 
 2    167 <NA>          Tatooine 
 3     96 <NA>          Naboo    
 4    202 none          Tatooine 
 5    150 brown         Alderaan 
 6    178 brown, grey   Tatooine 
 7    165 brown         Tatooine 
 8     97 <NA>          Tatooine 
 9    183 black         Tatooine 
10    182 auburn, white Stewjon  
# … with 77 more rows

Crear

Pseudocodigo

Ver/Ocultar código
crear(datos, variable(s) que necesito crear = contenido)

Código

Ver/Ocultar código
mutate(.data = seleccion1, altura = height/100) # En este caso vamos a crear una nueva variable que contenta la transformacion de height de centimetros a metros

# A tibble: 87 × 5
   name               height  mass gender    altura
   <chr>               <int> <dbl> <chr>      <dbl>
 1 Luke Skywalker        172    77 masculine   1.72
 2 C-3PO                 167    75 masculine   1.67
 3 R2-D2                  96    32 masculine   0.96
 4 Darth Vader           202   136 masculine   2.02
 5 Leia Organa           150    49 feminine    1.5 
 6 Owen Lars             178   120 masculine   1.78
 7 Beru Whitesun lars    165    75 feminine    1.65
 8 R5-D4                  97    32 masculine   0.97
 9 Biggs Darklighter     183    84 masculine   1.83
10 Obi-Wan Kenobi        182    77 masculine   1.82
# … with 77 more rows

A tener en cuenta!

Cuando usemos mutate() con una variable que ya existe en el dataset conviene no sobreescribirla. Esto afectaría la reproducibilidad del código. Lo mejor es generar una nueva variable con algún identificador.

Por ejemplo: Cuando cargamos el dataset vemos que la variable de agrupación gender es de tipo chr y lo que necesitamos es que sea un factor. En ese caso se haría lo siguiente:

Ver/Ocultar código
mutate(.data = seleccion1, gender_fct = as_factor(gender)) # Nos quedan ambas variables y solo utilizamos la que necesitemos

# A tibble: 87 × 5
   name               height  mass gender    gender_fct
   <chr>               <int> <dbl> <chr>     <fct>     
 1 Luke Skywalker        172    77 masculine masculine 
 2 C-3PO                 167    75 masculine masculine 
 3 R2-D2                  96    32 masculine masculine 
 4 Darth Vader           202   136 masculine masculine 
 5 Leia Organa           150    49 feminine  feminine  
 6 Owen Lars             178   120 masculine masculine 
 7 Beru Whitesun lars    165    75 feminine  feminine  
 8 R5-D4                  97    32 masculine masculine 
 9 Biggs Darklighter     183    84 masculine masculine 
10 Obi-Wan Kenobi        182    77 masculine masculine 
# … with 77 more rows

Ordenar

Pseudocodigo

Ver/Ocultar código
ordenar(datos, variable seleccionada)

Código

Ver/Ocultar código
arrange(.data = starwars, height) # Orden de menor a mayor

# A tibble: 87 × 14
   name     height  mass hair_color skin_color eye_color birth_year sex   gender
   <chr>     <int> <dbl> <chr>      <chr>      <chr>          <dbl> <chr> <chr> 
 1 Yoda         66    17 white      green      brown            896 male  mascu…
 2 Ratts T…     79    15 none       grey, blue unknown           NA male  mascu…
 3 Wicket …     88    20 brown      brown      brown              8 male  mascu…
 4 Dud Bolt     94    45 none       blue, grey yellow            NA male  mascu…
 5 R2-D2        96    32 <NA>       white, bl… red               33 none  mascu…
 6 R4-P17       96    NA none       silver, r… red, blue         NA none  femin…
 7 R5-D4        97    32 <NA>       white, red red               NA none  mascu…
 8 Sebulba     112    40 none       grey, red  orange            NA male  mascu…
 9 Gasgano     122    NA none       white, bl… black             NA male  mascu…
10 Watto       137    NA black      blue, grey yellow            NA male  mascu…
# … with 77 more rows, and 5 more variables: homeworld <chr>, species <chr>,
#   films <list>, vehicles <list>, starships <list>

Ver/Ocultar código
arrange(.data = starwars, desc(height)) # Orden de mayor a menor

# A tibble: 87 × 14
   name     height  mass hair_color skin_color eye_color birth_year sex   gender
   <chr>     <int> <dbl> <chr>      <chr>      <chr>          <dbl> <chr> <chr> 
 1 Yarael …    264    NA none       white      yellow          NA   male  mascu…
 2 Tarfful     234   136 brown      brown      blue            NA   male  mascu…
 3 Lama Su     229    88 none       grey       black           NA   male  mascu…
 4 Chewbac…    228   112 brown      unknown    blue           200   male  mascu…
 5 Roos Ta…    224    82 none       grey       orange          NA   male  mascu…
 6 Grievous    216   159 none       brown, wh… green, y…       NA   male  mascu…
 7 Taun We     213    NA none       grey       black           NA   fema… femin…
 8 Rugor N…    206    NA none       green      orange          NA   male  mascu…
 9 Tion Me…    206    80 none       grey       black           NA   male  mascu…
10 Darth V…    202   136 none       white      yellow          41.9 male  mascu…
# … with 77 more rows, and 5 more variables: homeworld <chr>, species <chr>,
#   films <list>, vehicles <list>, starships <list>

Acomodar

Pseudocodigo

Ver/Ocultar código
acomodar(datos, variable, antes/despues de)

Código

Ver/Ocultar código
relocate(.data = seleccion1, gender, .after = name) # En este caso acomodamos gender despues de name

# A tibble: 87 × 4
   name               gender    height  mass
   <chr>              <chr>      <int> <dbl>
 1 Luke Skywalker     masculine    172    77
 2 C-3PO              masculine    167    75
 3 R2-D2              masculine     96    32
 4 Darth Vader        masculine    202   136
 5 Leia Organa        feminine     150    49
 6 Owen Lars          masculine    178   120
 7 Beru Whitesun lars feminine     165    75
 8 R5-D4              masculine     97    32
 9 Biggs Darklighter  masculine    183    84
10 Obi-Wan Kenobi     masculine    182    77
# … with 77 more rows

Ver/Ocultar código
relocate(.data = seleccion1, name, .before = mass) # En este caso acomodamos name despues de mass

# A tibble: 87 × 4
   height name                mass gender   
    <int> <chr>              <dbl> <chr>    
 1    172 Luke Skywalker        77 masculine
 2    167 C-3PO                 75 masculine
 3     96 R2-D2                 32 masculine
 4    202 Darth Vader          136 masculine
 5    150 Leia Organa           49 feminine 
 6    178 Owen Lars            120 masculine
 7    165 Beru Whitesun lars    75 feminine 
 8     97 R5-D4                 32 masculine
 9    183 Biggs Darklighter     84 masculine
10    182 Obi-Wan Kenobi        77 masculine
# … with 77 more rows
…
